Exploratory Data Analysis
…
         December 6, 2020 

Introduction

For this project, I chose to work with the top 50 highest grossing movies of all time and how that relates to the number of unique Funko Pop vinyl figures that were created for each movie. The first dataset contains the titles of the top 50 movies, their worldwide gross earnings, and the years the movies came out. The second dataset contains the titles of the movies (meant to be the common variable between the two datasets), the number of Funko Pop figures created for that specific movie, the category of franchise they have been labled into by the Funko company, and the most expensive Pop figure I could find in that line. These two datasets will share the common variable of "Title" while the four numerical variables will include "Worldwide Gross", "Year", "Number of Pops", and "Most Expensive".

These two datasets were acquired from multiple sources. The top 50 grossing movies were from Wikipedia while the number of distinct Pops for each movie and the most expensive Pop were acquired by researching on Pop checklists on various websites detailing the different types of Pops that were created. These datasets were interesting to me because I own a few Pops of my own and I enjoy watching movies. In addition, the movie industry relies heavely on toy sales as income so I chose a toy line that seemed to garner the most attention for each movie, adding on to their total revenue. I expect there to be a higher number of Pops depending on the type of franchise each movie belongs to. For instance, a Marvel or Star Wars movie should have a very high number of distinct Funko Pops while standalone movies such as Avatar should not have a lot of Pops if any.

Tidying/Rearranging Datasets

library(tidyr)
untidy_movies <- my_movies %>% pivot_wider(names_from = "Year", values_from = "Worldwide.Gross")
untidy_movies

## # A tibble: 50 x 20
##    Title  `2019`  `2009`  `1997`  `2015`  `2018`  `2012` `2011` `2017` `2013`
##    <chr>   <dbl>   <dbl>   <dbl>   <dbl>   <dbl>   <dbl>  <dbl>  <dbl>  <dbl>
##  1 Aven…  2.80e9 NA      NA      NA      NA      NA          NA     NA     NA
##  2 Avat… NA       2.79e9 NA      NA      NA      NA          NA     NA     NA
##  3 Tita… NA      NA       2.19e9 NA      NA      NA          NA     NA     NA
##  4 Star… NA      NA      NA       2.07e9 NA      NA          NA     NA     NA
##  5 Aven… NA      NA      NA      NA       2.05e9 NA          NA     NA     NA
##  6 Jura… NA      NA      NA       1.67e9 NA      NA          NA     NA     NA
##  7 The …  1.66e9 NA      NA      NA      NA      NA          NA     NA     NA
##  8 The … NA      NA      NA      NA      NA       1.52e9     NA     NA     NA
##  9 Furi… NA      NA      NA       1.52e9 NA      NA          NA     NA     NA
## 10 Froz…  1.45e9 NA      NA      NA      NA      NA          NA     NA     NA
## # … with 40 more rows, and 10 more variables: `2016` <dbl>, `2003` <dbl>,
## #   `2014` <dbl>, `2010` <dbl>, `2006` <dbl>, `1993` <dbl>, `1999` <dbl>,
## #   `2008` <dbl>, `2001` <dbl>, `1994` <dbl>

untidy_movies %>% pivot_longer(!Title, names_to = "Year", values_to = "Worldwide.Gross")

## # A tibble: 950 x 3
##    Title             Year  Worldwide.Gross
##    <chr>             <chr>           <dbl>
##  1 Avengers: Endgame 2019       2797800564
##  2 Avengers: Endgame 2009               NA
##  3 Avengers: Endgame 1997               NA
##  4 Avengers: Endgame 2015               NA
##  5 Avengers: Endgame 2018               NA
##  6 Avengers: Endgame 2012               NA
##  7 Avengers: Endgame 2011               NA
##  8 Avengers: Endgame 2017               NA
##  9 Avengers: Endgame 2013               NA
## 10 Avengers: Endgame 2016               NA
## # … with 940 more rows

untidy_pops <- my_pops %>% pivot_wider(names_from = "Franchise", values_from = "Number.of.Pops")
untidy_pops

## # A tibble: 50 x 9
##    Title Most.Expensive Marvel  `NA` Movies `Star Wars` Disney `Harry Potter`
##    <chr>          <dbl>  <dbl> <dbl>  <dbl>       <dbl>  <dbl>          <dbl>
##  1 Aven…             49     49    NA     NA          NA     NA             NA
##  2 Avat…              0     NA     0     NA          NA     NA             NA
##  3 Tita…             26     NA    NA      3          NA     NA             NA
##  4 Star…             42     NA    NA     NA          54     NA             NA
##  5 Aven…            110     54    NA     NA          NA     NA             NA
##  6 Jura…             50     NA    NA      7          NA     NA             NA
##  7 The …             17     NA    NA     NA          NA     10             NA
##  8 The …           2280     12    NA     NA          NA     NA             NA
##  9 Furi…              0     NA     0     NA          NA     NA             NA
## 10 Froz…             37     NA    NA     NA          NA     27             NA
## # … with 40 more rows, and 1 more variable: Heroes <dbl>

untidy_pops %>% pivot_longer(!Title, names_to = "Franchise", values_to = "Number.of.Pops")

## # A tibble: 400 x 3
##    Title             Franchise      Number.of.Pops
##    <chr>             <chr>                   <dbl>
##  1 Avengers: Endgame Most.Expensive             49
##  2 Avengers: Endgame Marvel                     49
##  3 Avengers: Endgame NA                         NA
##  4 Avengers: Endgame Movies                     NA
##  5 Avengers: Endgame Star Wars                  NA
##  6 Avengers: Endgame Disney                     NA
##  7 Avengers: Endgame Harry Potter               NA
##  8 Avengers: Endgame Heroes                     NA
##  9 Avatar            Most.Expensive              0
## 10 Avatar            Marvel                     NA
## # … with 390 more rows
…
## The following objects are masked from 'package:stats':
## 
##     filter, lag

## The following objects are masked from 'package:base':
## 
##     intersect, setdiff, setequal, union

joined_data <- my_movies %>% left_join(my_pops)

## Joining, by = "Title"

joined_data

## # A tibble: 50 x 6
##    Title           Worldwide.Gross  Year Number.of.Pops Franchise Most.Expensive
##    <chr>                     <dbl> <dbl>          <dbl> <chr>              <dbl>
##  1 Avengers: Endg…      2797800564  2019             49 Marvel                49
##  2 Avatar               2790439000  2009              0 <NA>                   0
##  3 Titanic              2194439542  1997              3 Movies                26
##  4 Star Wars: The…      2068223624  2015             54 Star Wars             42
##  5 Avengers: Infi…      2048359754  2018             54 Marvel               110
##  6 Jurassic World       1671713208  2015              7 Movies                50
##  7 The Lion King …      1656943394  2019             10 Disney                17
##  8 The Avengers         1518812988  2012             12 Marvel              2280
##  9 Furious 7            1516045911  2015              0 <NA>                   0
## 10 Frozen II            1450026933  2019             27 Disney                37
## # … with 40 more rows
…
joined_data %>% filter(Franchise == "Marvel" & Number.of.Pops >= 20)

## # A tibble: 5 x 6
##   Title            Worldwide.Gross  Year Number.of.Pops Franchise Most.Expensive
##   <chr>                      <dbl> <dbl>          <dbl> <chr>              <dbl>
## 1 Avengers: Endga…      2797800564  2019             49 Marvel                49
## 2 Avengers: Infin…      2048359754  2018             54 Marvel               110
## 3 Black Panther         1347280838  2018             20 Marvel                37
## 4 Captain America…      1153329473  2016             22 Marvel               210
## 5 Captain Marvel        1128274794  2019             24 Marvel                14

joined_data %>% filter(Worldwide.Gross > 1000000 & between(Year, 2010, 2020)) %>%
  arrange(desc(Year)) %>% select(-Number.of.Pops)

## # A tibble: 41 x 5
##    Title                          Worldwide.Gross  Year Franchise Most.Expensive
##    <chr>                                    <dbl> <dbl> <chr>              <dbl>
##  1 Avengers: Endgame                   2797800564  2019 Marvel                49
##  2 The Lion King (Remake)              1656943394  2019 Disney                17
##  3 Frozen II                           1450026933  2019 Disney                37
##  4 Spider-Man: Far From Home           1131927996  2019 Marvel                19
##  5 Captain Marvel                      1128274794  2019 Marvel                14
##  6 Joker                               1074251311  2019 <NA>                   0
##  7 Star Wars: The Rise of Skywal…      1074144248  2019 Star Wars           1320
##  8 Toy Story 4                         1073394593  2019 Disney                42
##  9 Aladdin                             1050693953  2019 Disney                33
## 10 Avengers: Infinity War              2048359754  2018 Marvel               110
## # … with 31 more rows

joined_data %>% mutate(percent.change = (Worldwide.Gross - lead(Worldwide.Gross))/ lead(Worldwide.Gross)) %>% select(-Number.of.Pops, -Franchise)

## # A tibble: 50 x 5
##    Title                     Worldwide.Gross  Year Most.Expensive percent.change
##    <chr>                               <dbl> <dbl>          <dbl>          <dbl>
##  1 Avengers: Endgame              2797800564  2019             49        0.00264
##  2 Avatar                         2790439000  2009              0        0.272  
##  3 Titanic                        2194439542  1997             26        0.0610 
##  4 Star Wars: The Force Awa…      2068223624  2015             42        0.00970
##  5 Avengers: Infinity War         2048359754  2018            110        0.225  
##  6 Jurassic World                 1671713208  2015             50        0.00891
##  7 The Lion King (Remake)         1656943394  2019             17        0.0909 
##  8 The Avengers                   1518812988  2012           2280        0.00183
##  9 Furious 7                      1516045911  2015              0        0.0455 
## 10 Frozen II                      1450026933  2019             37        0.0337 
## # … with 40 more rows
…
joined_data %>% group_by(Franchise, Year) %>% summarize(mean_pops = mean(Number.of.Pops), max_pops = max(Number.of.Pops))

## `summarise()` regrouping output by 'Franchise' (override with `.groups` argument)

## # A tibble: 39 x 4
## # Groups:   Franchise [7]
##    Franchise  Year mean_pops max_pops
##    <chr>     <dbl>     <dbl>    <dbl>
##  1 Disney     1994      23         23
##  2 Disney     2006       6          6
##  3 Disney     2010      17.5       29
##  4 Disney     2011       3          3
##  5 Disney     2013      18         26
##  6 Disney     2015       7          7
##  7 Disney     2016       3.5        5
##  8 Disney     2017      11.5       12
##  9 Disney     2018      18         18
## 10 Disney     2019      17.5       27
## # … with 29 more rows
…
